{
  "required": true,
  "minVersion": "0.8",
  "package": "com.seibel.lod.fabric.mixins",
  "mixins": [
    "unsafe.MixinThreadingDectector",
    "MixinUtilBackgroudThread",
    "events.MixinServerLevel"
  ],
  "client": [
    "MixinMinecraft",
    "MixinOptionsScreen",
    "MixinWorldRenderer",
    "MixinFogRenderer",
    "MixinChunkGenerator",
    "MixinDebugScreenOverlay",
    "events.MixinClientLevel",
    "events.MixinMinecraft",
    "events.MixinBlockUpdate",
    "events.MixinLightmap"
  ],
  "server": [
    "MixinDedicatedServer"
  ],
  "injectors": {
    "defaultRequire": 1
  }
}
