{
	"required": true,
	"minVersion": "0.8",
	"package": "com.seibel.lod.forge.mixins",
	"mixins": [
		"MixinUtilBackgroudThread"
	],
	"client": [
		"MixinOptionsScreen",
		"MixinWorldRenderer",
		"MixinFogRenderer",
		"MixinChunkGenerator",
		"MixinLightmap",
		"MixinTFChunkGenerator",
		"MixinDebugScreenOverlay"
	],
	"server": []
}
